,l2_leaf_reg,sample,precision,recall,f1
0,0.01,3,0.927258894133966,0.9188050657866533,0.9221405426245207
1,0.05,3,0.9275790536957118,0.9217816989779325,0.9240074609672988
2,0.1,3,0.9308090291372819,0.9233701391648539,0.9262307038660172
3,0.3,3,0.9286300667177407,0.9202432239390873,0.9235142170255176
4,0.5,3,0.9276999631936731,0.9198409900681683,0.9228975550751493
5,1.0,3,0.9234448177490868,0.9180957691729373,0.9202354628573657
6,2.0,3,0.9244407807393357,0.9187484932411383,0.920955580961564
7,3.0,3,0.9113038521213325,0.9041236042727709,0.9068380104095218
8,5.0,3,0.9130398969654486,0.9057492712966521,0.9086932739609725
9,10.0,3,0.9245890498303958,0.9168067876156211,0.9197578321614372
