{
"meta":{"test_sets":[],"test_metrics":[],"learn_metrics":[{"best_value":"Min","name":"Logloss"}],"launch_mode":"Train","parameters":"","iteration_count":10,"learn_sets":["learn"],"name":"experiment"},
"iterations":[
{"learn":[0.6181008342],"iteration":0,"passed_time":0.00315949135,"remaining_time":0.02843542215},
{"learn":[0.5542425707],"iteration":1,"passed_time":0.004949803192,"remaining_time":0.01979921277},
{"learn":[0.5030784142],"iteration":2,"passed_time":0.006730766894,"remaining_time":0.01570512275},
{"learn":[0.4586462567],"iteration":3,"passed_time":0.00855598823,"remaining_time":0.01283398234},
{"learn":[0.4202717028],"iteration":4,"passed_time":0.01051837065,"remaining_time":0.01051837065},
{"learn":[0.3873175527],"iteration":5,"passed_time":0.01286519734,"remaining_time":0.008576798225},
{"learn":[0.3596749359],"iteration":6,"passed_time":0.01480613035,"remaining_time":0.006345484437},
{"learn":[0.3357203664],"iteration":7,"passed_time":0.0164436983,"remaining_time":0.004110924575},
{"learn":[0.3144559199],"iteration":8,"passed_time":0.01800240082,"remaining_time":0.002000266758},
{"learn":[0.295601766],"iteration":9,"passed_time":0.02004923595,"remaining_time":0}
]}